%YAML 1.1
%TAG !u! tag:unity3d.com,2011:
--- !u!162 &1
EditorUserSettings:
  m_ObjectHideFlags: 0
  serializedVersion: 4
  m_ConfigSettings:
    RecentlyUsedScenePath-0:
      value: 22424703114646680e0b0227036c7b0518101d252268003c22260f20adc61875b0a923e7ee2e26
      flags: 0
    RecentlyUsedScenePath-1:
      value: 22424703114646680e0b0227036c6919050219266c06292628255d00e1e53a3df1a810c5aa6b720a174cfa320d2a18
      flags: 0
    RecentlyUsedScenePath-2:
      value: 22424703114646680e0b0227036c6919050219266c06292628255d00e1e53a3df1a810c5aa68720a174cfa320d2a18
      flags: 0
    RecentlyUsedScenePath-3:
      value: 22424703114646680e0b0227036c6919050219266c06292628255d00e1e53a3df1a819f9e23436323e42dc3f01300471e704001fef
      flags: 0
    RecentlyUsedScenePath-4:
      value: 22424703114646680e0b0227036c6919050219266c06292628255d00e1e53a3df1a802fcf3352d35380ea20a2a701431fb1e10
      flags: 0
    RecentlyUsedScenePath-5:
      value: 22424703114646680e0b0227036c7b0518101d252268003c22260f20add4212cedf53fe8eb7719107717e1351027
      flags: 0
    RecentlyUsedScenePath-6:
      value: 22424703114646680e0b0227036c7b0518101d252268003c22260f20adc43135edd805eae2343a722c0ce6281d
      flags: 0
    RecentlyUsedScenePath-7:
      value: 22424703114646680e0b0227036c7b0518101d252268003c22260f20adc61875b3a923e7ee2e26
      flags: 0
    RecentlyUsedScenePath-8:
      value: 22424703114646680e0b0227036c7d110203142f623d28393930
      flags: 0
    RecentlyUsedScenePath-9:
      value: 22424703114646680e0b0227036c72151802563f22213229
      flags: 0
    vcSharedLogLevel:
      value: 0d5e400f0650
      flags: 0
  m_VCAutomaticAdd: 1
  m_VCDebugCom: 0
  m_VCDebugCmd: 0
  m_VCDebugOut: 0
  m_SemanticMergeMode: 2
  m_VCShowFailedCheckout: 1
  m_VCOverwriteFailedCheckoutAssets: 1
  m_VCProjectOverlayIcons: 1
  m_VCHierarchyOverlayIcons: 1
  m_VCOtherOverlayIcons: 1
  m_VCAllowAsyncUpdate: 1
